{
  "project_info": {
    "project_number": "1035116604052",
    "firebase_url": "https://raheemdriver-202010.firebaseio.com",
    "project_id": "raheemdriver-202010",
    "storage_bucket": "raheemdriver-202010.appspot.com"
  },
  "client": [
    {
      "client_info": {
        "mobilesdk_app_id": "1:1035116604052:android:6a647505ac8b9861",
        "android_client_info": {
          "package_name": "taxi.raheemcar.com.raheemuser"
        }
      },
      "oauth_client": [
        {
          "client_id": "1035116604052-70npvcci2ekigqok4o1629ov7kuj7g7t.apps.googleusercontent.com",
          "client_type": 1,
          "android_info": {
            "package_name": "taxi.raheemcar.com.raheemuser",
            "certificate_hash": "150ae6ccb0371e5b0fc576b0a0dd918e643076e4"
          }
        },
        {
          "client_id": "1035116604052-d3ad15c5hdl1je7kp9k3ef2g5h2obabs.apps.googleusercontent.com",
          "client_type": 3
        }
      ],
      "api_key": [
        {
          "current_key": "AIzaSyBN0BZuhvd6Gf2BbMPlqhoL-XK9LQiHYLw"
        }
      ],
      "services": {
        "analytics_service": {
          "status": 1
        },
        "appinvite_service": {
          "status": 2,
          "other_platform_oauth_client": [
            {
              "client_id": "1035116604052-d3ad15c5hdl1je7kp9k3ef2g5h2obabs.apps.googleusercontent.com",
              "client_type": 3
            }
          ]
        },
        "ads_service": {
          "status": 2
        }
      }
    },
    {
      "client_info": {
        "mobilesdk_app_id": "1:1035116604052:android:f573d8fa039102e4",
        "android_client_info": {
          "package_name": "taxi.raheemdriver.com.raheemdriver"
        }
      },
      "oauth_client": [
        {
          "client_id": "1035116604052-aqhp6sjuc1m4gk1barsfeajser6lgv79.apps.googleusercontent.com",
          "client_type": 1,
          "android_info": {
            "package_name": "taxi.raheemdriver.com.raheemdriver",
            "certificate_hash": "150ae6ccb0371e5b0fc576b0a0dd918e643076e4"
          }
        },
        {
          "client_id": "1035116604052-d3ad15c5hdl1je7kp9k3ef2g5h2obabs.apps.googleusercontent.com",
          "client_type": 3
        }
      ],
      "api_key": [
        {
          "current_key": "AIzaSyBN0BZuhvd6Gf2BbMPlqhoL-XK9LQiHYLw"
        }
      ],
      "services": {
        "analytics_service": {
          "status": 1
        },
        "appinvite_service": {
          "status": 2,
          "other_platform_oauth_client": [
            {
              "client_id": "1035116604052-d3ad15c5hdl1je7kp9k3ef2g5h2obabs.apps.googleusercontent.com",
              "client_type": 3
            }
          ]
        },
        "ads_service": {
          "status": 2
        }
      }
    }
  ],
  "configuration_version": "1"
}